Team
…
diabetes_clean %>% group_by(location) %>% summarise(mean.glyhb = mean(glyhb_star))

## # A tibble: 2 x 2
##   location   mean.glyhb
##   <fct>           <dbl>
## 1 Buckingham       1.69
## 2 Louisa           1.65

diabetes_clean %>% group_by(age) %>% summarise(mean.glyhb = mean(glyhb_star)) 

## # A tibble: 67 x 2
##      age mean.glyhb
##    <int>      <dbl>
##  1    19       1.51
##  2    20       1.51
##  3    21       1.47
##  4    22       1.39
##  5    23       1.53
##  6    24       1.53
##  7    25       1.58
##  8    26       1.61
##  9    27       1.51
## 10    28       1.45
## # ... with 57 more rows
…
